%!PS-Adobe-3.0
%%Creator: PCBNEW
%%CreationDate: Thu Jul 28 10:30:19 2022
%%Title: ()
%%Pages: 1
%%PageOrder: Ascend
%%BoundingBox: 0 0 596 842
%%DocumentMedia: A4 595 842 0 () ()
%%Orientation: Landscape
%%EndComments
%%BeginProlog
/line { newpath moveto lineto stroke } bind def
/cir0 { newpath 0 360 arc stroke } bind def
/cir1 { newpath 0 360 arc gsave fill grestore stroke } bind def
/cir2 { newpath 0 360 arc gsave fill grestore stroke } bind def
/arc0 { newpath arc stroke } bind def
/arc1 { newpath 4 index 4 index moveto arc closepath gsave fill
    grestore stroke } bind def
/arc2 { newpath 4 index 4 index moveto arc closepath gsave fill
    grestore stroke } bind def
/poly0 { stroke } bind def
/poly1 { closepath gsave fill grestore stroke } bind def
/poly2 { closepath gsave fill grestore stroke } bind def
/rect0 { rectstroke } bind def
/rect1 { rectfill } bind def
/rect2 { rectfill } bind def
/linemode0 { 0 setlinecap 0 setlinejoin 0 setlinewidth } bind def
/linemode1 { 1 setlinecap 1 setlinejoin } bind def
/dashedline { [200] 100 setdash } bind def
/solidline { [] 0 setdash } bind def
/phantomshow { moveto
    /KicadFont findfont 0.000001 scalefont setfont
    show } bind def
/textshow { gsave
    findfont exch scalefont setfont concat 1 scale 0 0 moveto show
    } bind def
/reencodefont {
  findfont dup length dict begin
  { 1 index /FID ne
    { def }
    { pop pop } ifelse
  } forall
  /Encoding ISOLatin1Encoding def
  currentdict
  end } bind def
/KicadFont /Helvetica reencodefont definefont pop
/KicadFont-Bold /Helvetica-Bold reencodefont definefont pop
/KicadFont-Oblique /Helvetica-Oblique reencodefont definefont pop
/KicadFont-BoldOblique /Helvetica-BoldOblique reencodefont definefont pop
%%EndProlog
%%Page: 1 1
%%BeginPageSetup
gsave
0.0072 0.0072 scale
linemode1
82680 0 translate 90 rotate
207.125 setlinewidth
%%EndPageSetup
0 0 0 setrgbcolor
103.562 setlinewidth
newpath
105586 36127.9 moveto
105586 43377.3 lineto
stroke
0 0 0 setrgbcolor
108693 79624.1 1035.62 -0 90 arc0
0 0 0 setrgbcolor
104550 36127.9 1035.62 -90 -0 arc0
0 0 0 setrgbcolor
108693 45448.5 1035.62 -90 -0 arc0
0 0 0 setrgbcolor
newpath
7201.64 45448.5 moveto
7201.64 79624.1 lineto
stroke
0 0 0 setrgbcolor
12379.8 36127.9 1035.62 -180 -90 arc0
0 0 0 setrgbcolor
106621 43377.3 1035.62 90 180 arc0
0 0 0 setrgbcolor
newpath
8237.26 80659.7 moveto
108693 80659.7 lineto
stroke
0 0 0 setrgbcolor
newpath
109728 45448.5 moveto
109728 79624.1 lineto
stroke
0 0 0 setrgbcolor
8237.26 45448.5 1035.62 -180 -90 arc0
0 0 0 setrgbcolor
newpath
11344.1 43377.3 moveto
11344.1 36127.9 lineto
stroke
0 0 0 setrgbcolor
newpath
10308.5 44412.9 moveto
8237.26 44412.9 lineto
stroke
0 0 0 setrgbcolor
10308.5 43377.3 1035.62 -0 90 arc0
0 0 0 setrgbcolor
newpath
106621 44412.9 moveto
108693 44412.9 lineto
stroke
0 0 0 setrgbcolor
newpath
12379.8 35092.3 moveto
104550 35092.3 lineto
stroke
0 0 0 setrgbcolor
8237.26 79624.1 1035.62 90 180 arc0
207.125 setlinewidth
78.7405 setlinewidth
0 0 0 setrgbcolor
0 0 0 setrgbcolor
newpath
8164.11 33818.2 moveto
8164.11 34605.6 lineto
8351.59 34605.6 lineto
8464.07 34568.1 lineto
8539.06 34493.1 lineto
8576.56 34418.1 lineto
8614.05 34268.1 lineto
8614.05 34155.6 lineto
8576.56 34005.6 lineto
8539.06 33930.6 lineto
8464.07 33855.7 lineto
8351.59 33818.2 lineto
8164.11 33818.2 lineto
stroke
newpath
8951.51 33818.2 moveto
8951.51 34343.1 lineto
stroke
newpath
8951.51 34193.1 moveto
8989.01 34268.1 lineto
9026.5 34305.6 lineto
9101.49 34343.1 lineto
9176.48 34343.1 lineto
stroke
newpath
9438.95 33818.2 moveto
9438.95 34343.1 lineto
stroke
newpath
9438.95 34605.6 moveto
9401.45 34568.1 lineto
9438.95 34530.6 lineto
9476.45 34568.1 lineto
9438.95 34605.6 lineto
9438.95 34530.6 lineto
stroke
newpath
9926.39 33818.2 moveto
9851.4 33855.7 lineto
9813.9 33930.6 lineto
9813.9 34605.6 lineto
stroke
newpath
10338.8 33818.2 moveto
10263.8 33855.7 lineto
10226.4 33930.6 lineto
10226.4 34605.6 lineto
stroke
newpath
11238.7 33818.2 moveto
11238.7 34605.6 lineto
11501.2 34043.1 lineto
11763.7 34605.6 lineto
11763.7 33818.2 lineto
stroke
newpath
12476.1 33818.2 moveto
12476.1 34230.6 lineto
12438.6 34305.6 lineto
12363.6 34343.1 lineto
12213.6 34343.1 lineto
12138.6 34305.6 lineto
stroke
newpath
12476.1 33855.7 moveto
12401.1 33818.2 lineto
12213.6 33818.2 lineto
12138.6 33855.7 lineto
12101.1 33930.6 lineto
12101.1 34005.6 lineto
12138.6 34080.6 lineto
12213.6 34118.1 lineto
12401.1 34118.1 lineto
12476.1 34155.6 lineto
stroke
newpath
12851 34343.1 moveto
12851 33555.7 lineto
stroke
newpath
12851 34305.6 moveto
12926 34343.1 lineto
13076 34343.1 lineto
13151 34305.6 lineto
13188.5 34268.1 lineto
13226 34193.1 lineto
13226 33968.1 lineto
13188.5 33893.1 lineto
13151 33855.7 lineto
13076 33818.2 lineto
12926 33818.2 lineto
12851 33855.7 lineto
stroke
newpath
13563.4 33893.1 moveto
13600.9 33855.7 lineto
13563.4 33818.2 lineto
13525.9 33855.7 lineto
13563.4 33893.1 lineto
13563.4 33818.2 lineto
stroke
newpath
13563.4 34305.6 moveto
13600.9 34268.1 lineto
13563.4 34230.6 lineto
13525.9 34268.1 lineto
13563.4 34305.6 lineto
13563.4 34230.6 lineto
stroke
showpage
grestore
%%EOF
