%TF.GenerationSoftware,KiCad,Pcbnew,(6.0.6)*%
%TF.CreationDate,2022-07-28T10:30:21-04:00*%
%TF.ProjectId,erica synths pico system iii pcb,65726963-6120-4737-996e-746873207069,rev?*%
%TF.SameCoordinates,Original*%
%TF.FileFunction,Legend,Bot*%
%TF.FilePolarity,Positive*%
%FSLAX46Y46*%
G04 Gerber Fmt 4.6, Leading zero omitted, Abs format (unit mm)*
G04 Created by KiCad (PCBNEW (6.0.6)) date 2022-07-28 10:30:21*
%MOMM*%
%LPD*%
G01*
G04 APERTURE LIST*
%ADD10C,0.150000*%
G04 APERTURE END LIST*
D10*
X192866785Y-18774285D02*
X194200119Y-18774285D01*
X194200119Y-20869523D02*
X194200119Y-16869523D01*
X192295357Y-16869523D01*
X190200119Y-20869523D02*
X190581071Y-20679047D01*
X190771547Y-20488571D01*
X190962023Y-20107619D01*
X190962023Y-18964761D01*
X190771547Y-18583809D01*
X190581071Y-18393333D01*
X190200119Y-18202857D01*
X189628690Y-18202857D01*
X189247738Y-18393333D01*
X189057261Y-18583809D01*
X188866785Y-18964761D01*
X188866785Y-20107619D01*
X189057261Y-20488571D01*
X189247738Y-20679047D01*
X189628690Y-20869523D01*
X190200119Y-20869523D01*
X187152500Y-20869523D02*
X187152500Y-18202857D01*
X187152500Y-18964761D02*
X186962023Y-18583809D01*
X186771547Y-18393333D01*
X186390595Y-18202857D01*
X186009642Y-18202857D01*
X181628690Y-18774285D02*
X180295357Y-18774285D01*
X179723928Y-20869523D02*
X181628690Y-20869523D01*
X181628690Y-16869523D01*
X179723928Y-16869523D01*
X178009642Y-20869523D02*
X178009642Y-18202857D01*
X178009642Y-18964761D02*
X177819166Y-18583809D01*
X177628690Y-18393333D01*
X177247738Y-18202857D01*
X176866785Y-18202857D01*
X175533452Y-20869523D02*
X175533452Y-18202857D01*
X175533452Y-16869523D02*
X175723928Y-17060000D01*
X175533452Y-17250476D01*
X175342976Y-17060000D01*
X175533452Y-16869523D01*
X175533452Y-17250476D01*
X171914404Y-20679047D02*
X172295357Y-20869523D01*
X173057261Y-20869523D01*
X173438214Y-20679047D01*
X173628690Y-20488571D01*
X173819166Y-20107619D01*
X173819166Y-18964761D01*
X173628690Y-18583809D01*
X173438214Y-18393333D01*
X173057261Y-18202857D01*
X172295357Y-18202857D01*
X171914404Y-18393333D01*
X168485833Y-20869523D02*
X168485833Y-18774285D01*
X168676309Y-18393333D01*
X169057261Y-18202857D01*
X169819166Y-18202857D01*
X170200119Y-18393333D01*
X168485833Y-20679047D02*
X168866785Y-20869523D01*
X169819166Y-20869523D01*
X170200119Y-20679047D01*
X170390595Y-20298095D01*
X170390595Y-19917142D01*
X170200119Y-19536190D01*
X169819166Y-19345714D01*
X168866785Y-19345714D01*
X168485833Y-19155238D01*
X163723928Y-20679047D02*
X163152500Y-20869523D01*
X162200119Y-20869523D01*
X161819166Y-20679047D01*
X161628690Y-20488571D01*
X161438214Y-20107619D01*
X161438214Y-19726666D01*
X161628690Y-19345714D01*
X161819166Y-19155238D01*
X162200119Y-18964761D01*
X162962023Y-18774285D01*
X163342976Y-18583809D01*
X163533452Y-18393333D01*
X163723928Y-18012380D01*
X163723928Y-17631428D01*
X163533452Y-17250476D01*
X163342976Y-17060000D01*
X162962023Y-16869523D01*
X162009642Y-16869523D01*
X161438214Y-17060000D01*
X160104880Y-18202857D02*
X159152500Y-20869523D01*
X158200119Y-18202857D02*
X159152500Y-20869523D01*
X159533452Y-21821904D01*
X159723928Y-22012380D01*
X160104880Y-22202857D01*
X156676309Y-18202857D02*
X156676309Y-20869523D01*
X156676309Y-18583809D02*
X156485833Y-18393333D01*
X156104880Y-18202857D01*
X155533452Y-18202857D01*
X155152500Y-18393333D01*
X154962023Y-18774285D01*
X154962023Y-20869523D01*
X153628690Y-18202857D02*
X152104880Y-18202857D01*
X153057261Y-16869523D02*
X153057261Y-20298095D01*
X152866785Y-20679047D01*
X152485833Y-20869523D01*
X152104880Y-20869523D01*
X150771547Y-20869523D02*
X150771547Y-16869523D01*
X149057261Y-20869523D02*
X149057261Y-18774285D01*
X149247738Y-18393333D01*
X149628690Y-18202857D01*
X150200119Y-18202857D01*
X150581071Y-18393333D01*
X150771547Y-18583809D01*
X147342976Y-20679047D02*
X146962023Y-20869523D01*
X146200119Y-20869523D01*
X145819166Y-20679047D01*
X145628690Y-20298095D01*
X145628690Y-20107619D01*
X145819166Y-19726666D01*
X146200119Y-19536190D01*
X146771547Y-19536190D01*
X147152500Y-19345714D01*
X147342976Y-18964761D01*
X147342976Y-18774285D01*
X147152500Y-18393333D01*
X146771547Y-18202857D01*
X146200119Y-18202857D01*
X145819166Y-18393333D01*
X140866785Y-20869523D02*
X140866785Y-16869523D01*
X139342976Y-16869523D01*
X138962023Y-17060000D01*
X138771547Y-17250476D01*
X138581071Y-17631428D01*
X138581071Y-18202857D01*
X138771547Y-18583809D01*
X138962023Y-18774285D01*
X139342976Y-18964761D01*
X140866785Y-18964761D01*
X136866785Y-20869523D02*
X136866785Y-18202857D01*
X136866785Y-16869523D02*
X137057261Y-17060000D01*
X136866785Y-17250476D01*
X136676309Y-17060000D01*
X136866785Y-16869523D01*
X136866785Y-17250476D01*
X133247738Y-20679047D02*
X133628690Y-20869523D01*
X134390595Y-20869523D01*
X134771547Y-20679047D01*
X134962023Y-20488571D01*
X135152500Y-20107619D01*
X135152500Y-18964761D01*
X134962023Y-18583809D01*
X134771547Y-18393333D01*
X134390595Y-18202857D01*
X133628690Y-18202857D01*
X133247738Y-18393333D01*
X130962023Y-20869523D02*
X131342976Y-20679047D01*
X131533452Y-20488571D01*
X131723928Y-20107619D01*
X131723928Y-18964761D01*
X131533452Y-18583809D01*
X131342976Y-18393333D01*
X130962023Y-18202857D01*
X130390595Y-18202857D01*
X130009642Y-18393333D01*
X129819166Y-18583809D01*
X129628690Y-18964761D01*
X129628690Y-20107619D01*
X129819166Y-20488571D01*
X130009642Y-20679047D01*
X130390595Y-20869523D01*
X130962023Y-20869523D01*
X125057261Y-20679047D02*
X124485833Y-20869523D01*
X123533452Y-20869523D01*
X123152500Y-20679047D01*
X122962023Y-20488571D01*
X122771547Y-20107619D01*
X122771547Y-19726666D01*
X122962023Y-19345714D01*
X123152500Y-19155238D01*
X123533452Y-18964761D01*
X124295357Y-18774285D01*
X124676309Y-18583809D01*
X124866785Y-18393333D01*
X125057261Y-18012380D01*
X125057261Y-17631428D01*
X124866785Y-17250476D01*
X124676309Y-17060000D01*
X124295357Y-16869523D01*
X123342976Y-16869523D01*
X122771547Y-17060000D01*
X121438214Y-18202857D02*
X120485833Y-20869523D01*
X119533452Y-18202857D02*
X120485833Y-20869523D01*
X120866785Y-21821904D01*
X121057261Y-22012380D01*
X121438214Y-22202857D01*
X118200119Y-20679047D02*
X117819166Y-20869523D01*
X117057261Y-20869523D01*
X116676309Y-20679047D01*
X116485833Y-20298095D01*
X116485833Y-20107619D01*
X116676309Y-19726666D01*
X117057261Y-19536190D01*
X117628690Y-19536190D01*
X118009642Y-19345714D01*
X118200119Y-18964761D01*
X118200119Y-18774285D01*
X118009642Y-18393333D01*
X117628690Y-18202857D01*
X117057261Y-18202857D01*
X116676309Y-18393333D01*
X115342976Y-18202857D02*
X113819166Y-18202857D01*
X114771547Y-16869523D02*
X114771547Y-20298095D01*
X114581071Y-20679047D01*
X114200119Y-20869523D01*
X113819166Y-20869523D01*
X110962023Y-20679047D02*
X111342976Y-20869523D01*
X112104880Y-20869523D01*
X112485833Y-20679047D01*
X112676309Y-20298095D01*
X112676309Y-18774285D01*
X112485833Y-18393333D01*
X112104880Y-18202857D01*
X111342976Y-18202857D01*
X110962023Y-18393333D01*
X110771547Y-18774285D01*
X110771547Y-19155238D01*
X112676309Y-19536190D01*
X109057261Y-20869523D02*
X109057261Y-18202857D01*
X109057261Y-18583809D02*
X108866785Y-18393333D01*
X108485833Y-18202857D01*
X107914404Y-18202857D01*
X107533452Y-18393333D01*
X107342976Y-18774285D01*
X107342976Y-20869523D01*
X107342976Y-18774285D02*
X107152500Y-18393333D01*
X106771547Y-18202857D01*
X106200119Y-18202857D01*
X105819166Y-18393333D01*
X105628690Y-18774285D01*
X105628690Y-20869523D01*
X100676309Y-20869523D02*
X100676309Y-16869523D01*
X98771547Y-20869523D02*
X98771547Y-16869523D01*
X96866785Y-20869523D02*
X96866785Y-16869523D01*
X194200119Y-27309523D02*
X194200119Y-23309523D01*
X194200119Y-24833333D02*
X193819166Y-24642857D01*
X193057261Y-24642857D01*
X192676309Y-24833333D01*
X192485833Y-25023809D01*
X192295357Y-25404761D01*
X192295357Y-26547619D01*
X192485833Y-26928571D01*
X192676309Y-27119047D01*
X193057261Y-27309523D01*
X193819166Y-27309523D01*
X194200119Y-27119047D01*
X188866785Y-24642857D02*
X188866785Y-27309523D01*
X190581071Y-24642857D02*
X190581071Y-26738095D01*
X190390595Y-27119047D01*
X190009642Y-27309523D01*
X189438214Y-27309523D01*
X189057261Y-27119047D01*
X188866785Y-26928571D01*
X186962023Y-27309523D02*
X186962023Y-24642857D01*
X186962023Y-25404761D02*
X186771547Y-25023809D01*
X186581071Y-24833333D01*
X186200119Y-24642857D01*
X185819166Y-24642857D01*
X182771547Y-27309523D02*
X182771547Y-23309523D01*
X182771547Y-27119047D02*
X183152500Y-27309523D01*
X183914404Y-27309523D01*
X184295357Y-27119047D01*
X184485833Y-26928571D01*
X184676309Y-26547619D01*
X184676309Y-25404761D01*
X184485833Y-25023809D01*
X184295357Y-24833333D01*
X183914404Y-24642857D01*
X183152500Y-24642857D01*
X182771547Y-24833333D01*
X180866785Y-27309523D02*
X180866785Y-24642857D01*
X180866785Y-23309523D02*
X181057261Y-23500000D01*
X180866785Y-23690476D01*
X180676309Y-23500000D01*
X180866785Y-23309523D01*
X180866785Y-23690476D01*
X177247738Y-27119047D02*
X177628690Y-27309523D01*
X178390595Y-27309523D01*
X178771547Y-27119047D01*
X178962023Y-26928571D01*
X179152500Y-26547619D01*
X179152500Y-25404761D01*
X178962023Y-25023809D01*
X178771547Y-24833333D01*
X178390595Y-24642857D01*
X177628690Y-24642857D01*
X177247738Y-24833333D01*
X175533452Y-27309523D02*
X175533452Y-23309523D01*
X175152500Y-25785714D02*
X174009642Y-27309523D01*
X174009642Y-24642857D02*
X175533452Y-26166666D01*
X172295357Y-24642857D02*
X172295357Y-28071428D01*
X172485833Y-28452380D01*
X172866785Y-28642857D01*
X173057261Y-28642857D01*
X172295357Y-23309523D02*
X172485833Y-23500000D01*
X172295357Y-23690476D01*
X172104880Y-23500000D01*
X172295357Y-23309523D01*
X172295357Y-23690476D01*
X170390595Y-24642857D02*
X170390595Y-28642857D01*
X170390595Y-24833333D02*
X170009642Y-24642857D01*
X169247738Y-24642857D01*
X168866785Y-24833333D01*
X168676309Y-25023809D01*
X168485833Y-25404761D01*
X168485833Y-26547619D01*
X168676309Y-26928571D01*
X168866785Y-27119047D01*
X169247738Y-27309523D01*
X170009642Y-27309523D01*
X170390595Y-27119047D01*
X164295357Y-25404761D02*
X164485833Y-25214285D01*
X164866785Y-25023809D01*
X165247738Y-25023809D01*
X165628690Y-25214285D01*
X165819166Y-25404761D01*
X166009642Y-25785714D01*
X166009642Y-26166666D01*
X165819166Y-26547619D01*
X165628690Y-26738095D01*
X165247738Y-26928571D01*
X164866785Y-26928571D01*
X164485833Y-26738095D01*
X164295357Y-26547619D01*
X164295357Y-25023809D02*
X164295357Y-26547619D01*
X164104880Y-26738095D01*
X163914404Y-26738095D01*
X163533452Y-26547619D01*
X163342976Y-26166666D01*
X163342976Y-25214285D01*
X163723928Y-24642857D01*
X164295357Y-24261904D01*
X165057261Y-24071428D01*
X165819166Y-24261904D01*
X166390595Y-24642857D01*
X166771547Y-25214285D01*
X166962023Y-25976190D01*
X166771547Y-26738095D01*
X166390595Y-27309523D01*
X165819166Y-27690476D01*
X165057261Y-27880952D01*
X164295357Y-27690476D01*
X163723928Y-27309523D01*
X161628690Y-24642857D02*
X161628690Y-28642857D01*
X161628690Y-24833333D02*
X161247738Y-24642857D01*
X160485833Y-24642857D01*
X160104880Y-24833333D01*
X159914404Y-25023809D01*
X159723928Y-25404761D01*
X159723928Y-26547619D01*
X159914404Y-26928571D01*
X160104880Y-27119047D01*
X160485833Y-27309523D01*
X161247738Y-27309523D01*
X161628690Y-27119047D01*
X158009642Y-27309523D02*
X158009642Y-24642857D01*
X158009642Y-25404761D02*
X157819166Y-25023809D01*
X157628690Y-24833333D01*
X157247738Y-24642857D01*
X156866785Y-24642857D01*
X154962023Y-27309523D02*
X155342976Y-27119047D01*
X155533452Y-26928571D01*
X155723928Y-26547619D01*
X155723928Y-25404761D01*
X155533452Y-25023809D01*
X155342976Y-24833333D01*
X154962023Y-24642857D01*
X154390595Y-24642857D01*
X154009642Y-24833333D01*
X153819166Y-25023809D01*
X153628690Y-25404761D01*
X153628690Y-26547619D01*
X153819166Y-26928571D01*
X154009642Y-27119047D01*
X154390595Y-27309523D01*
X154962023Y-27309523D01*
X152485833Y-24642857D02*
X150962023Y-24642857D01*
X151914404Y-23309523D02*
X151914404Y-26738095D01*
X151723928Y-27119047D01*
X151342976Y-27309523D01*
X150962023Y-27309523D01*
X149057261Y-27309523D02*
X149438214Y-27119047D01*
X149628690Y-26928571D01*
X149819166Y-26547619D01*
X149819166Y-25404761D01*
X149628690Y-25023809D01*
X149438214Y-24833333D01*
X149057261Y-24642857D01*
X148485833Y-24642857D01*
X148104880Y-24833333D01*
X147914404Y-25023809D01*
X147723928Y-25404761D01*
X147723928Y-26547619D01*
X147914404Y-26928571D01*
X148104880Y-27119047D01*
X148485833Y-27309523D01*
X149057261Y-27309523D01*
X146009642Y-24642857D02*
X146009642Y-27309523D01*
X146009642Y-25023809D02*
X145819166Y-24833333D01*
X145438214Y-24642857D01*
X144866785Y-24642857D01*
X144485833Y-24833333D01*
X144295357Y-25214285D01*
X144295357Y-27309523D01*
X142390595Y-27309523D02*
X142390595Y-24642857D01*
X142390595Y-25023809D02*
X142200119Y-24833333D01*
X141819166Y-24642857D01*
X141247738Y-24642857D01*
X140866785Y-24833333D01*
X140676309Y-25214285D01*
X140676309Y-27309523D01*
X140676309Y-25214285D02*
X140485833Y-24833333D01*
X140104880Y-24642857D01*
X139533452Y-24642857D01*
X139152500Y-24833333D01*
X138962023Y-25214285D01*
X138962023Y-27309523D01*
X135342976Y-27309523D02*
X135342976Y-25214285D01*
X135533452Y-24833333D01*
X135914404Y-24642857D01*
X136676309Y-24642857D01*
X137057261Y-24833333D01*
X135342976Y-27119047D02*
X135723928Y-27309523D01*
X136676309Y-27309523D01*
X137057261Y-27119047D01*
X137247738Y-26738095D01*
X137247738Y-26357142D01*
X137057261Y-25976190D01*
X136676309Y-25785714D01*
X135723928Y-25785714D01*
X135342976Y-25595238D01*
X133438214Y-27309523D02*
X133438214Y-24642857D01*
X133438214Y-23309523D02*
X133628690Y-23500000D01*
X133438214Y-23690476D01*
X133247738Y-23500000D01*
X133438214Y-23309523D01*
X133438214Y-23690476D01*
X130962023Y-27309523D02*
X131342976Y-27119047D01*
X131533452Y-26738095D01*
X131533452Y-23309523D01*
X129438214Y-26928571D02*
X129247738Y-27119047D01*
X129438214Y-27309523D01*
X129628690Y-27119047D01*
X129438214Y-26928571D01*
X129438214Y-27309523D01*
X125819166Y-27119047D02*
X126200119Y-27309523D01*
X126962023Y-27309523D01*
X127342976Y-27119047D01*
X127533452Y-26928571D01*
X127723928Y-26547619D01*
X127723928Y-25404761D01*
X127533452Y-25023809D01*
X127342976Y-24833333D01*
X126962023Y-24642857D01*
X126200119Y-24642857D01*
X125819166Y-24833333D01*
X123533452Y-27309523D02*
X123914404Y-27119047D01*
X124104880Y-26928571D01*
X124295357Y-26547619D01*
X124295357Y-25404761D01*
X124104880Y-25023809D01*
X123914404Y-24833333D01*
X123533452Y-24642857D01*
X122962023Y-24642857D01*
X122581071Y-24833333D01*
X122390595Y-25023809D01*
X122200119Y-25404761D01*
X122200119Y-26547619D01*
X122390595Y-26928571D01*
X122581071Y-27119047D01*
X122962023Y-27309523D01*
X123533452Y-27309523D01*
X120485833Y-27309523D02*
X120485833Y-24642857D01*
X120485833Y-25023809D02*
X120295357Y-24833333D01*
X119914404Y-24642857D01*
X119342976Y-24642857D01*
X118962023Y-24833333D01*
X118771547Y-25214285D01*
X118771547Y-27309523D01*
X118771547Y-25214285D02*
X118581071Y-24833333D01*
X118200119Y-24642857D01*
X117628690Y-24642857D01*
X117247738Y-24833333D01*
X117057261Y-25214285D01*
X117057261Y-27309523D01*
X194200119Y-33749523D02*
X194200119Y-29749523D01*
X194200119Y-31273333D02*
X193819166Y-31082857D01*
X193057261Y-31082857D01*
X192676309Y-31273333D01*
X192485833Y-31463809D01*
X192295357Y-31844761D01*
X192295357Y-32987619D01*
X192485833Y-33368571D01*
X192676309Y-33559047D01*
X193057261Y-33749523D01*
X193819166Y-33749523D01*
X194200119Y-33559047D01*
X188866785Y-31082857D02*
X188866785Y-33749523D01*
X190581071Y-31082857D02*
X190581071Y-33178095D01*
X190390595Y-33559047D01*
X190009642Y-33749523D01*
X189438214Y-33749523D01*
X189057261Y-33559047D01*
X188866785Y-33368571D01*
X186962023Y-33749523D02*
X186962023Y-31082857D01*
X186962023Y-31844761D02*
X186771547Y-31463809D01*
X186581071Y-31273333D01*
X186200119Y-31082857D01*
X185819166Y-31082857D01*
X182771547Y-33749523D02*
X182771547Y-29749523D01*
X182771547Y-33559047D02*
X183152500Y-33749523D01*
X183914404Y-33749523D01*
X184295357Y-33559047D01*
X184485833Y-33368571D01*
X184676309Y-32987619D01*
X184676309Y-31844761D01*
X184485833Y-31463809D01*
X184295357Y-31273333D01*
X183914404Y-31082857D01*
X183152500Y-31082857D01*
X182771547Y-31273333D01*
X180866785Y-33749523D02*
X180866785Y-31082857D01*
X180866785Y-29749523D02*
X181057261Y-29940000D01*
X180866785Y-30130476D01*
X180676309Y-29940000D01*
X180866785Y-29749523D01*
X180866785Y-30130476D01*
X177247738Y-33559047D02*
X177628690Y-33749523D01*
X178390595Y-33749523D01*
X178771547Y-33559047D01*
X178962023Y-33368571D01*
X179152500Y-32987619D01*
X179152500Y-31844761D01*
X178962023Y-31463809D01*
X178771547Y-31273333D01*
X178390595Y-31082857D01*
X177628690Y-31082857D01*
X177247738Y-31273333D01*
X175533452Y-33749523D02*
X175533452Y-29749523D01*
X175152500Y-32225714D02*
X174009642Y-33749523D01*
X174009642Y-31082857D02*
X175533452Y-32606666D01*
X172295357Y-31082857D02*
X172295357Y-34511428D01*
X172485833Y-34892380D01*
X172866785Y-35082857D01*
X173057261Y-35082857D01*
X172295357Y-29749523D02*
X172485833Y-29940000D01*
X172295357Y-30130476D01*
X172104880Y-29940000D01*
X172295357Y-29749523D01*
X172295357Y-30130476D01*
X170390595Y-31082857D02*
X170390595Y-35082857D01*
X170390595Y-31273333D02*
X170009642Y-31082857D01*
X169247738Y-31082857D01*
X168866785Y-31273333D01*
X168676309Y-31463809D01*
X168485833Y-31844761D01*
X168485833Y-32987619D01*
X168676309Y-33368571D01*
X168866785Y-33559047D01*
X169247738Y-33749523D01*
X170009642Y-33749523D01*
X170390595Y-33559047D01*
X166771547Y-33368571D02*
X166581071Y-33559047D01*
X166771547Y-33749523D01*
X166962023Y-33559047D01*
X166771547Y-33368571D01*
X166771547Y-33749523D01*
X163152500Y-31082857D02*
X163152500Y-34320952D01*
X163342976Y-34701904D01*
X163533452Y-34892380D01*
X163914404Y-35082857D01*
X164485833Y-35082857D01*
X164866785Y-34892380D01*
X163152500Y-33559047D02*
X163533452Y-33749523D01*
X164295357Y-33749523D01*
X164676309Y-33559047D01*
X164866785Y-33368571D01*
X165057261Y-32987619D01*
X165057261Y-31844761D01*
X164866785Y-31463809D01*
X164676309Y-31273333D01*
X164295357Y-31082857D01*
X163533452Y-31082857D01*
X163152500Y-31273333D01*
X161247738Y-33749523D02*
X161247738Y-31082857D01*
X161247738Y-29749523D02*
X161438214Y-29940000D01*
X161247738Y-30130476D01*
X161057261Y-29940000D01*
X161247738Y-29749523D01*
X161247738Y-30130476D01*
X159914404Y-31082857D02*
X158390595Y-31082857D01*
X159342976Y-29749523D02*
X159342976Y-33178095D01*
X159152500Y-33559047D01*
X158771547Y-33749523D01*
X158390595Y-33749523D01*
X156485833Y-33749523D02*
X156866785Y-33559047D01*
X157057261Y-33178095D01*
X157057261Y-29749523D01*
X153247738Y-33749523D02*
X153247738Y-31654285D01*
X153438214Y-31273333D01*
X153819166Y-31082857D01*
X154581071Y-31082857D01*
X154962023Y-31273333D01*
X153247738Y-33559047D02*
X153628690Y-33749523D01*
X154581071Y-33749523D01*
X154962023Y-33559047D01*
X155152500Y-33178095D01*
X155152500Y-32797142D01*
X154962023Y-32416190D01*
X154581071Y-32225714D01*
X153628690Y-32225714D01*
X153247738Y-32035238D01*
X151342976Y-33749523D02*
X151342976Y-29749523D01*
X151342976Y-31273333D02*
X150962023Y-31082857D01*
X150200119Y-31082857D01*
X149819166Y-31273333D01*
X149628690Y-31463809D01*
X149438214Y-31844761D01*
X149438214Y-32987619D01*
X149628690Y-33368571D01*
X149819166Y-33559047D01*
X150200119Y-33749523D01*
X150962023Y-33749523D01*
X151342976Y-33559047D01*
X147723928Y-33368571D02*
X147533452Y-33559047D01*
X147723928Y-33749523D01*
X147914404Y-33559047D01*
X147723928Y-33368571D01*
X147723928Y-33749523D01*
X145819166Y-33749523D02*
X145819166Y-31082857D01*
X145819166Y-29749523D02*
X146009642Y-29940000D01*
X145819166Y-30130476D01*
X145628690Y-29940000D01*
X145819166Y-29749523D01*
X145819166Y-30130476D01*
X143342976Y-33749523D02*
X143723928Y-33559047D01*
X143914404Y-33368571D01*
X144104880Y-32987619D01*
X144104880Y-31844761D01*
X143914404Y-31463809D01*
X143723928Y-31273333D01*
X143342976Y-31082857D01*
X142771547Y-31082857D01*
X142390595Y-31273333D01*
X142200119Y-31463809D01*
X142009642Y-31844761D01*
X142009642Y-32987619D01*
X142200119Y-33368571D01*
X142390595Y-33559047D01*
X142771547Y-33749523D01*
X143342976Y-33749523D01*
M02*
