%!PS-Adobe-3.0
%%Creator: PCBNEW
%%CreationDate: Thu Jul 28 10:30:19 2022
%%Title: ()
%%Pages: 1
%%PageOrder: Ascend
%%BoundingBox: 0 0 596 842
%%DocumentMedia: A4 595 842 0 () ()
%%Orientation: Landscape
%%EndComments
%%BeginProlog
/line { newpath moveto lineto stroke } bind def
/cir0 { newpath 0 360 arc stroke } bind def
/cir1 { newpath 0 360 arc gsave fill grestore stroke } bind def
/cir2 { newpath 0 360 arc gsave fill grestore stroke } bind def
/arc0 { newpath arc stroke } bind def
/arc1 { newpath 4 index 4 index moveto arc closepath gsave fill
    grestore stroke } bind def
/arc2 { newpath 4 index 4 index moveto arc closepath gsave fill
    grestore stroke } bind def
/poly0 { stroke } bind def
/poly1 { closepath gsave fill grestore stroke } bind def
/poly2 { closepath gsave fill grestore stroke } bind def
/rect0 { rectstroke } bind def
/rect1 { rectfill } bind def
/rect2 { rectfill } bind def
/linemode0 { 0 setlinecap 0 setlinejoin 0 setlinewidth } bind def
/linemode1 { 1 setlinecap 1 setlinejoin } bind def
/dashedline { [200] 100 setdash } bind def
/solidline { [] 0 setdash } bind def
/phantomshow { moveto
    /KicadFont findfont 0.000001 scalefont setfont
    show } bind def
/textshow { gsave
    findfont exch scalefont setfont concat 1 scale 0 0 moveto show
    } bind def
/reencodefont {
  findfont dup length dict begin
  { 1 index /FID ne
    { def }
    { pop pop } ifelse
  } forall
  /Encoding ISOLatin1Encoding def
  currentdict
  end } bind def
/KicadFont /Helvetica reencodefont definefont pop
/KicadFont-Bold /Helvetica-Bold reencodefont definefont pop
/KicadFont-Oblique /Helvetica-Oblique reencodefont definefont pop
/KicadFont-BoldOblique /Helvetica-BoldOblique reencodefont definefont pop
%%EndProlog
%%Page: 1 1
%%BeginPageSetup
gsave
0.0072 0.0072 scale
linemode1
82680 0 translate 90 rotate
207.125 setlinewidth
%%EndPageSetup
0 0 0 setrgbcolor
103.562 setlinewidth
newpath
105586 36127.9 moveto
105586 43377.3 lineto
stroke
0 0 0 setrgbcolor
108693 79624.1 1035.62 -0 90 arc0
0 0 0 setrgbcolor
104550 36127.9 1035.62 -90 -0 arc0
0 0 0 setrgbcolor
108693 45448.5 1035.62 -90 -0 arc0
0 0 0 setrgbcolor
newpath
7201.64 45448.5 moveto
7201.64 79624.1 lineto
stroke
0 0 0 setrgbcolor
12379.8 36127.9 1035.62 -180 -90 arc0
0 0 0 setrgbcolor
106621 43377.3 1035.62 90 180 arc0
0 0 0 setrgbcolor
newpath
8237.26 80659.7 moveto
108693 80659.7 lineto
stroke
0 0 0 setrgbcolor
newpath
109728 45448.5 moveto
109728 79624.1 lineto
stroke
0 0 0 setrgbcolor
8237.26 45448.5 1035.62 -180 -90 arc0
0 0 0 setrgbcolor
newpath
11344.1 43377.3 moveto
11344.1 36127.9 lineto
stroke
0 0 0 setrgbcolor
newpath
10308.5 44412.9 moveto
8237.26 44412.9 lineto
stroke
0 0 0 setrgbcolor
10308.5 43377.3 1035.62 -0 90 arc0
0 0 0 setrgbcolor
newpath
106621 44412.9 moveto
108693 44412.9 lineto
stroke
0 0 0 setrgbcolor
newpath
12379.8 35092.3 moveto
104550 35092.3 lineto
stroke
0 0 0 setrgbcolor
8237.26 79624.1 1035.62 90 180 arc0
207.125 setlinewidth
103.562 setlinewidth
newpath
21700.4 47519.8 moveto
22736 46484.1 lineto
stroke
newpath
22736 47519.8 moveto
21700.4 46484.1 lineto
stroke
newpath
39823.8 52180.1 moveto
40859.4 51144.4 lineto
stroke
newpath
40859.4 52180.1 moveto
39823.8 51144.4 lineto
stroke
newpath
49144.4 56840.4 moveto
50180 55804.8 lineto
stroke
newpath
50180 56840.4 moveto
49144.4 55804.8 lineto
stroke
newpath
50180 51662.3 moveto
51215.6 50626.6 lineto
stroke
newpath
51215.6 51662.3 moveto
50180 50626.6 lineto
stroke
newpath
58982.8 57358.2 moveto
60018.4 56322.6 lineto
stroke
newpath
60018.4 57358.2 moveto
58982.8 56322.6 lineto
stroke
newpath
64160.9 61500.7 moveto
65196.6 60465.1 lineto
stroke
newpath
65196.6 61500.7 moveto
64160.9 60465.1 lineto
stroke
newpath
79177.5 59947.2 moveto
80213.1 58911.6 lineto
stroke
newpath
80213.1 59947.2 moveto
79177.5 58911.6 lineto
stroke
newpath
79177.5 50626.6 moveto
80213.1 49591 lineto
stroke
newpath
80213.1 50626.6 moveto
79177.5 49591 lineto
stroke
newpath
81248.7 69267.9 moveto
82284.3 68232.2 lineto
stroke
newpath
82284.3 69267.9 moveto
81248.7 68232.2 lineto
stroke
newpath
83320 55286.9 moveto
84355.6 54251.3 lineto
stroke
newpath
84355.6 55286.9 moveto
83320 54251.3 lineto
stroke
newpath
83837.8 71856.9 moveto
84873.4 70821.3 lineto
stroke
newpath
84873.4 71856.9 moveto
83837.8 70821.3 lineto
stroke
newpath
89015.9 63054.1 moveto
90051.5 62018.5 lineto
stroke
newpath
90051.5 63054.1 moveto
89015.9 62018.5 lineto
stroke
207.125 setlinewidth
78.7405 setlinewidth
0 0 0 setrgbcolor
0 0 0 setrgbcolor
newpath
8164.11 33818.2 moveto
8164.11 34605.6 lineto
8351.59 34605.6 lineto
8464.07 34568.1 lineto
8539.06 34493.1 lineto
8576.56 34418.1 lineto
8614.05 34268.1 lineto
8614.05 34155.6 lineto
8576.56 34005.6 lineto
8539.06 33930.6 lineto
8464.07 33855.7 lineto
8351.59 33818.2 lineto
8164.11 33818.2 lineto
stroke
newpath
8951.51 33818.2 moveto
8951.51 34343.1 lineto
stroke
newpath
8951.51 34193.1 moveto
8989.01 34268.1 lineto
9026.5 34305.6 lineto
9101.49 34343.1 lineto
9176.48 34343.1 lineto
stroke
newpath
9438.95 33818.2 moveto
9438.95 34343.1 lineto
stroke
newpath
9438.95 34605.6 moveto
9401.45 34568.1 lineto
9438.95 34530.6 lineto
9476.45 34568.1 lineto
9438.95 34605.6 lineto
9438.95 34530.6 lineto
stroke
newpath
9926.39 33818.2 moveto
9851.4 33855.7 lineto
9813.9 33930.6 lineto
9813.9 34605.6 lineto
stroke
newpath
10338.8 33818.2 moveto
10263.8 33855.7 lineto
10226.4 33930.6 lineto
10226.4 34605.6 lineto
stroke
newpath
11238.7 33818.2 moveto
11238.7 34605.6 lineto
11501.2 34043.1 lineto
11763.7 34605.6 lineto
11763.7 33818.2 lineto
stroke
newpath
12476.1 33818.2 moveto
12476.1 34230.6 lineto
12438.6 34305.6 lineto
12363.6 34343.1 lineto
12213.6 34343.1 lineto
12138.6 34305.6 lineto
stroke
newpath
12476.1 33855.7 moveto
12401.1 33818.2 lineto
12213.6 33818.2 lineto
12138.6 33855.7 lineto
12101.1 33930.6 lineto
12101.1 34005.6 lineto
12138.6 34080.6 lineto
12213.6 34118.1 lineto
12401.1 34118.1 lineto
12476.1 34155.6 lineto
stroke
newpath
12851 34343.1 moveto
12851 33555.7 lineto
stroke
newpath
12851 34305.6 moveto
12926 34343.1 lineto
13076 34343.1 lineto
13151 34305.6 lineto
13188.5 34268.1 lineto
13226 34193.1 lineto
13226 33968.1 lineto
13188.5 33893.1 lineto
13151 33855.7 lineto
13076 33818.2 lineto
12926 33818.2 lineto
12851 33855.7 lineto
stroke
newpath
13563.4 33893.1 moveto
13600.9 33855.7 lineto
13563.4 33818.2 lineto
13525.9 33855.7 lineto
13563.4 33893.1 lineto
13563.4 33818.2 lineto
stroke
newpath
13563.4 34305.6 moveto
13600.9 34268.1 lineto
13563.4 34230.6 lineto
13525.9 34268.1 lineto
13563.4 34305.6 lineto
13563.4 34230.6 lineto
stroke
78.7395 setlinewidth
newpath
6362.46 32914.5 moveto
7149.86 32127.1 lineto
stroke
newpath
7149.86 32914.5 moveto
6362.46 32127.1 lineto
stroke
207.125 setlinewidth
78.7405 setlinewidth
0 0 0 setrgbcolor
0 0 0 setrgbcolor
newpath
8576.56 32164.6 moveto
8126.61 32164.6 lineto
stroke
newpath
8351.59 32164.6 moveto
8351.59 32952 lineto
8276.59 32839.5 lineto
8201.6 32764.5 lineto
8126.61 32727 lineto
stroke
newpath
8914.02 32239.6 moveto
8951.51 32202.1 lineto
8914.02 32164.6 lineto
8876.52 32202.1 lineto
8914.02 32239.6 lineto
8914.02 32164.6 lineto
stroke
newpath
9438.95 32952 moveto
9513.94 32952 lineto
9588.93 32914.5 lineto
9626.43 32877 lineto
9663.92 32802 lineto
9701.42 32652.1 lineto
9701.42 32464.6 lineto
9663.92 32314.6 lineto
9626.43 32239.6 lineto
9588.93 32202.1 lineto
9513.94 32164.6 lineto
9438.95 32164.6 lineto
9363.96 32202.1 lineto
9326.46 32239.6 lineto
9288.97 32314.6 lineto
9251.47 32464.6 lineto
9251.47 32652.1 lineto
9288.97 32802 lineto
9326.46 32877 lineto
9363.96 32914.5 lineto
9438.95 32952 lineto
stroke
newpath
10188.9 32952 moveto
10263.8 32952 lineto
10338.8 32914.5 lineto
10376.3 32877 lineto
10413.8 32802 lineto
10451.3 32652.1 lineto
10451.3 32464.6 lineto
10413.8 32314.6 lineto
10376.3 32239.6 lineto
10338.8 32202.1 lineto
10263.8 32164.6 lineto
10188.9 32164.6 lineto
10113.9 32202.1 lineto
10076.4 32239.6 lineto
10038.9 32314.6 lineto
10001.4 32464.6 lineto
10001.4 32652.1 lineto
10038.9 32802 lineto
10076.4 32877 lineto
10113.9 32914.5 lineto
10188.9 32952 lineto
stroke
newpath
10938.8 32952 moveto
11013.8 32952 lineto
11088.7 32914.5 lineto
11126.2 32877 lineto
11163.7 32802 lineto
11201.2 32652.1 lineto
11201.2 32464.6 lineto
11163.7 32314.6 lineto
11126.2 32239.6 lineto
11088.7 32202.1 lineto
11013.8 32164.6 lineto
10938.8 32164.6 lineto
10863.8 32202.1 lineto
10826.3 32239.6 lineto
10788.8 32314.6 lineto
10751.3 32464.6 lineto
10751.3 32652.1 lineto
10788.8 32802 lineto
10826.3 32877 lineto
10863.8 32914.5 lineto
10938.8 32952 lineto
stroke
newpath
11538.7 32164.6 moveto
11538.7 32689.5 lineto
stroke
newpath
11538.7 32614.6 moveto
11576.2 32652.1 lineto
11651.2 32689.5 lineto
11763.7 32689.5 lineto
11838.7 32652.1 lineto
11876.1 32577.1 lineto
11876.1 32164.6 lineto
stroke
newpath
11876.1 32577.1 moveto
11913.6 32652.1 lineto
11988.6 32689.5 lineto
12101.1 32689.5 lineto
12176.1 32652.1 lineto
12213.6 32577.1 lineto
12213.6 32164.6 lineto
stroke
newpath
12588.6 32164.6 moveto
12588.6 32689.5 lineto
stroke
newpath
12588.6 32614.6 moveto
12626.1 32652.1 lineto
12701 32689.5 lineto
12813.5 32689.5 lineto
12888.5 32652.1 lineto
12926 32577.1 lineto
12926 32164.6 lineto
stroke
newpath
12926 32577.1 moveto
12963.5 32652.1 lineto
13038.5 32689.5 lineto
13151 32689.5 lineto
13226 32652.1 lineto
13263.5 32577.1 lineto
13263.5 32164.6 lineto
stroke
newpath
14800.8 32989.5 moveto
14125.9 31977.1 lineto
stroke
newpath
15813.2 32952 moveto
15888.1 32952 lineto
15963.1 32914.5 lineto
16000.6 32877 lineto
16038.1 32802 lineto
16075.6 32652.1 lineto
16075.6 32464.6 lineto
16038.1 32314.6 lineto
16000.6 32239.6 lineto
15963.1 32202.1 lineto
15888.1 32164.6 lineto
15813.2 32164.6 lineto
15738.2 32202.1 lineto
15700.7 32239.6 lineto
15663.2 32314.6 lineto
15625.7 32464.6 lineto
15625.7 32652.1 lineto
15663.2 32802 lineto
15700.7 32877 lineto
15738.2 32914.5 lineto
15813.2 32952 lineto
stroke
newpath
16413.1 32239.6 moveto
16450.6 32202.1 lineto
16413.1 32164.6 lineto
16375.6 32202.1 lineto
16413.1 32239.6 lineto
16413.1 32164.6 lineto
stroke
newpath
16938 32952 moveto
17013 32952 lineto
17088 32914.5 lineto
17125.5 32877 lineto
17163 32802 lineto
17200.5 32652.1 lineto
17200.5 32464.6 lineto
17163 32314.6 lineto
17125.5 32239.6 lineto
17088 32202.1 lineto
17013 32164.6 lineto
16938 32164.6 lineto
16863 32202.1 lineto
16825.5 32239.6 lineto
16788 32314.6 lineto
16750.5 32464.6 lineto
16750.5 32652.1 lineto
16788 32802 lineto
16825.5 32877 lineto
16863 32914.5 lineto
16938 32952 lineto
stroke
newpath
17463 32952 moveto
17950.4 32952 lineto
17687.9 32652.1 lineto
17800.4 32652.1 lineto
17875.4 32614.6 lineto
17912.9 32577.1 lineto
17950.4 32502.1 lineto
17950.4 32314.6 lineto
17912.9 32239.6 lineto
17875.4 32202.1 lineto
17800.4 32164.6 lineto
17575.4 32164.6 lineto
17500.4 32202.1 lineto
17463 32239.6 lineto
stroke
newpath
18325.3 32164.6 moveto
18475.3 32164.6 lineto
18550.3 32202.1 lineto
18587.8 32239.6 lineto
18662.8 32352.1 lineto
18700.3 32502.1 lineto
18700.3 32802 lineto
18662.8 32877 lineto
18625.3 32914.5 lineto
18550.3 32952 lineto
18400.3 32952 lineto
18325.3 32914.5 lineto
18287.9 32877 lineto
18250.4 32802 lineto
18250.4 32614.6 lineto
18287.9 32539.6 lineto
18325.3 32502.1 lineto
18400.3 32464.6 lineto
18550.3 32464.6 lineto
18625.3 32502.1 lineto
18662.8 32539.6 lineto
18700.3 32614.6 lineto
stroke
newpath
19375.2 32689.5 moveto
19375.2 32164.6 lineto
stroke
newpath
19187.7 32989.5 moveto
19000.3 32427.1 lineto
19487.7 32427.1 lineto
stroke
newpath
19750.2 32952 moveto
19750.2 32802 lineto
stroke
newpath
20050.1 32952 moveto
20050.1 32802 lineto
stroke
newpath
21212.5 31864.6 moveto
21175 31902.1 lineto
21100 32014.6 lineto
21062.5 32089.6 lineto
21025 32202.1 lineto
20987.5 32389.6 lineto
20987.5 32539.6 lineto
21025 32727 lineto
21062.5 32839.5 lineto
21100 32914.5 lineto
21175 33027 lineto
21212.5 33064.5 lineto
stroke
newpath
21924.9 32164.6 moveto
21475 32164.6 lineto
stroke
newpath
21699.9 32164.6 moveto
21699.9 32952 lineto
21624.9 32839.5 lineto
21549.9 32764.5 lineto
21475 32727 lineto
stroke
newpath
22224.9 32877 moveto
22262.4 32914.5 lineto
22337.3 32952 lineto
22524.8 32952 lineto
22599.8 32914.5 lineto
22637.3 32877 lineto
22674.8 32802 lineto
22674.8 32727 lineto
22637.3 32614.6 lineto
22187.4 32164.6 lineto
22674.8 32164.6 lineto
stroke
newpath
23612.2 32164.6 moveto
23612.2 32952 lineto
stroke
newpath
23949.6 32164.6 moveto
23949.6 32577.1 lineto
23912.1 32652.1 lineto
23837.2 32689.5 lineto
23724.7 32689.5 lineto
23649.7 32652.1 lineto
23612.2 32614.6 lineto
stroke
newpath
24437.1 32164.6 moveto
24362.1 32202.1 lineto
24324.6 32239.6 lineto
24287.1 32314.6 lineto
24287.1 32539.6 lineto
24324.6 32614.6 lineto
24362.1 32652.1 lineto
24437.1 32689.5 lineto
24549.6 32689.5 lineto
24624.6 32652.1 lineto
24662.1 32614.6 lineto
24699.6 32539.6 lineto
24699.6 32314.6 lineto
24662.1 32239.6 lineto
24624.6 32202.1 lineto
24549.6 32164.6 lineto
24437.1 32164.6 lineto
stroke
newpath
25149.5 32164.6 moveto
25074.5 32202.1 lineto
25037 32277.1 lineto
25037 32952 lineto
stroke
newpath
25749.4 32202.1 moveto
25674.4 32164.6 lineto
25524.4 32164.6 lineto
25449.5 32202.1 lineto
25412 32277.1 lineto
25412 32577.1 lineto
25449.5 32652.1 lineto
25524.4 32689.5 lineto
25674.4 32689.5 lineto
25749.4 32652.1 lineto
25786.9 32577.1 lineto
25786.9 32502.1 lineto
25412 32427.1 lineto
stroke
newpath
26086.9 32202.1 moveto
26161.9 32164.6 lineto
26311.9 32164.6 lineto
26386.8 32202.1 lineto
26424.3 32277.1 lineto
26424.3 32314.6 lineto
26386.8 32389.6 lineto
26311.9 32427.1 lineto
26199.4 32427.1 lineto
26124.4 32464.6 lineto
26086.9 32539.6 lineto
26086.9 32577.1 lineto
26124.4 32652.1 lineto
26199.4 32689.5 lineto
26311.9 32689.5 lineto
26386.8 32652.1 lineto
stroke
newpath
26686.8 31864.6 moveto
26724.3 31902.1 lineto
26799.3 32014.6 lineto
26836.8 32089.6 lineto
26874.3 32202.1 lineto
26911.8 32389.6 lineto
26911.8 32539.6 lineto
26874.3 32727 lineto
26836.8 32839.5 lineto
26799.3 32914.5 lineto
26724.3 33027 lineto
26686.8 33064.5 lineto
stroke
showpage
grestore
%%EOF
