%TF.GenerationSoftware,KiCad,Pcbnew,6.0.8*%
%TF.CreationDate,2022-10-16T21:11:28-04:00*%
%TF.ProjectId,erica synths pico system iii pcb,65726963-6120-4737-996e-746873207069,rev?*%
%TF.SameCoordinates,Original*%
%TF.FileFunction,Legend,Bot*%
%TF.FilePolarity,Positive*%
%FSLAX46Y46*%
G04 Gerber Fmt 4.6, Leading zero omitted, Abs format (unit mm)*
G04 Created by KiCad (PCBNEW 6.0.8) date 2022-10-16 21:11:28*
%MOMM*%
%LPD*%
G01*
G04 APERTURE LIST*
%ADD10C,0.150000*%
G04 APERTURE END LIST*
D10*
X192809642Y-18354285D02*
X193942976Y-18354285D01*
X193942976Y-20449523D02*
X193942976Y-16449523D01*
X192323928Y-16449523D01*
X190542976Y-20449523D02*
X190866785Y-20259047D01*
X191028690Y-20068571D01*
X191190595Y-19687619D01*
X191190595Y-18544761D01*
X191028690Y-18163809D01*
X190866785Y-17973333D01*
X190542976Y-17782857D01*
X190057261Y-17782857D01*
X189733452Y-17973333D01*
X189571547Y-18163809D01*
X189409642Y-18544761D01*
X189409642Y-19687619D01*
X189571547Y-20068571D01*
X189733452Y-20259047D01*
X190057261Y-20449523D01*
X190542976Y-20449523D01*
X187952500Y-20449523D02*
X187952500Y-17782857D01*
X187952500Y-18544761D02*
X187790595Y-18163809D01*
X187628690Y-17973333D01*
X187304880Y-17782857D01*
X186981071Y-17782857D01*
X183257261Y-18354285D02*
X182123928Y-18354285D01*
X181638214Y-20449523D02*
X183257261Y-20449523D01*
X183257261Y-16449523D01*
X181638214Y-16449523D01*
X180181071Y-20449523D02*
X180181071Y-17782857D01*
X180181071Y-18544761D02*
X180019166Y-18163809D01*
X179857261Y-17973333D01*
X179533452Y-17782857D01*
X179209642Y-17782857D01*
X178076309Y-20449523D02*
X178076309Y-17782857D01*
X178076309Y-16449523D02*
X178238214Y-16640000D01*
X178076309Y-16830476D01*
X177914404Y-16640000D01*
X178076309Y-16449523D01*
X178076309Y-16830476D01*
X175000119Y-20259047D02*
X175323928Y-20449523D01*
X175971547Y-20449523D01*
X176295357Y-20259047D01*
X176457261Y-20068571D01*
X176619166Y-19687619D01*
X176619166Y-18544761D01*
X176457261Y-18163809D01*
X176295357Y-17973333D01*
X175971547Y-17782857D01*
X175323928Y-17782857D01*
X175000119Y-17973333D01*
X172085833Y-20449523D02*
X172085833Y-18354285D01*
X172247738Y-17973333D01*
X172571547Y-17782857D01*
X173219166Y-17782857D01*
X173542976Y-17973333D01*
X172085833Y-20259047D02*
X172409642Y-20449523D01*
X173219166Y-20449523D01*
X173542976Y-20259047D01*
X173704880Y-19878095D01*
X173704880Y-19497142D01*
X173542976Y-19116190D01*
X173219166Y-18925714D01*
X172409642Y-18925714D01*
X172085833Y-18735238D01*
X168038214Y-20259047D02*
X167552499Y-20449523D01*
X166742976Y-20449523D01*
X166419166Y-20259047D01*
X166257261Y-20068571D01*
X166095357Y-19687619D01*
X166095357Y-19306666D01*
X166257261Y-18925714D01*
X166419166Y-18735238D01*
X166742976Y-18544761D01*
X167390595Y-18354285D01*
X167714404Y-18163809D01*
X167876309Y-17973333D01*
X168038214Y-17592380D01*
X168038214Y-17211428D01*
X167876309Y-16830476D01*
X167714404Y-16640000D01*
X167390595Y-16449523D01*
X166581071Y-16449523D01*
X166095357Y-16640000D01*
X164962023Y-17782857D02*
X164152499Y-20449523D01*
X163342976Y-17782857D02*
X164152499Y-20449523D01*
X164476309Y-21401904D01*
X164638214Y-21592380D01*
X164962023Y-21782857D01*
X162047738Y-17782857D02*
X162047738Y-20449523D01*
X162047738Y-18163809D02*
X161885833Y-17973333D01*
X161562023Y-17782857D01*
X161076309Y-17782857D01*
X160752499Y-17973333D01*
X160590595Y-18354285D01*
X160590595Y-20449523D01*
X159457261Y-17782857D02*
X158162023Y-17782857D01*
X158971547Y-16449523D02*
X158971547Y-19878095D01*
X158809642Y-20259047D01*
X158485833Y-20449523D01*
X158162023Y-20449523D01*
X157028690Y-20449523D02*
X157028690Y-16449523D01*
X155571547Y-20449523D02*
X155571547Y-18354285D01*
X155733452Y-17973333D01*
X156057261Y-17782857D01*
X156542976Y-17782857D01*
X156866785Y-17973333D01*
X157028690Y-18163809D01*
X154114404Y-20259047D02*
X153790595Y-20449523D01*
X153142976Y-20449523D01*
X152819166Y-20259047D01*
X152657261Y-19878095D01*
X152657261Y-19687619D01*
X152819166Y-19306666D01*
X153142976Y-19116190D01*
X153628690Y-19116190D01*
X153952499Y-18925714D01*
X154114404Y-18544761D01*
X154114404Y-18354285D01*
X153952499Y-17973333D01*
X153628690Y-17782857D01*
X153142976Y-17782857D01*
X152819166Y-17973333D01*
X148609642Y-20449523D02*
X148609642Y-16449523D01*
X147314404Y-16449523D01*
X146990595Y-16640000D01*
X146828690Y-16830476D01*
X146666785Y-17211428D01*
X146666785Y-17782857D01*
X146828690Y-18163809D01*
X146990595Y-18354285D01*
X147314404Y-18544761D01*
X148609642Y-18544761D01*
X145209642Y-20449523D02*
X145209642Y-17782857D01*
X145209642Y-16449523D02*
X145371547Y-16640000D01*
X145209642Y-16830476D01*
X145047738Y-16640000D01*
X145209642Y-16449523D01*
X145209642Y-16830476D01*
X142133452Y-20259047D02*
X142457261Y-20449523D01*
X143104880Y-20449523D01*
X143428690Y-20259047D01*
X143590595Y-20068571D01*
X143752499Y-19687619D01*
X143752499Y-18544761D01*
X143590595Y-18163809D01*
X143428690Y-17973333D01*
X143104880Y-17782857D01*
X142457261Y-17782857D01*
X142133452Y-17973333D01*
X140190595Y-20449523D02*
X140514404Y-20259047D01*
X140676309Y-20068571D01*
X140838214Y-19687619D01*
X140838214Y-18544761D01*
X140676309Y-18163809D01*
X140514404Y-17973333D01*
X140190595Y-17782857D01*
X139704880Y-17782857D01*
X139381071Y-17973333D01*
X139219166Y-18163809D01*
X139057261Y-18544761D01*
X139057261Y-19687619D01*
X139219166Y-20068571D01*
X139381071Y-20259047D01*
X139704880Y-20449523D01*
X140190595Y-20449523D01*
X135171547Y-20259047D02*
X134685833Y-20449523D01*
X133876309Y-20449523D01*
X133552499Y-20259047D01*
X133390595Y-20068571D01*
X133228690Y-19687619D01*
X133228690Y-19306666D01*
X133390595Y-18925714D01*
X133552499Y-18735238D01*
X133876309Y-18544761D01*
X134523928Y-18354285D01*
X134847738Y-18163809D01*
X135009642Y-17973333D01*
X135171547Y-17592380D01*
X135171547Y-17211428D01*
X135009642Y-16830476D01*
X134847738Y-16640000D01*
X134523928Y-16449523D01*
X133714404Y-16449523D01*
X133228690Y-16640000D01*
X132095357Y-17782857D02*
X131285833Y-20449523D01*
X130476309Y-17782857D02*
X131285833Y-20449523D01*
X131609642Y-21401904D01*
X131771547Y-21592380D01*
X132095357Y-21782857D01*
X129342976Y-20259047D02*
X129019166Y-20449523D01*
X128371547Y-20449523D01*
X128047738Y-20259047D01*
X127885833Y-19878095D01*
X127885833Y-19687619D01*
X128047738Y-19306666D01*
X128371547Y-19116190D01*
X128857261Y-19116190D01*
X129181071Y-18925714D01*
X129342976Y-18544761D01*
X129342976Y-18354285D01*
X129181071Y-17973333D01*
X128857261Y-17782857D01*
X128371547Y-17782857D01*
X128047738Y-17973333D01*
X126914404Y-17782857D02*
X125619166Y-17782857D01*
X126428690Y-16449523D02*
X126428690Y-19878095D01*
X126266785Y-20259047D01*
X125942976Y-20449523D01*
X125619166Y-20449523D01*
X123190595Y-20259047D02*
X123514404Y-20449523D01*
X124162023Y-20449523D01*
X124485833Y-20259047D01*
X124647738Y-19878095D01*
X124647738Y-18354285D01*
X124485833Y-17973333D01*
X124162023Y-17782857D01*
X123514404Y-17782857D01*
X123190595Y-17973333D01*
X123028690Y-18354285D01*
X123028690Y-18735238D01*
X124647738Y-19116190D01*
X121571547Y-20449523D02*
X121571547Y-17782857D01*
X121571547Y-18163809D02*
X121409642Y-17973333D01*
X121085833Y-17782857D01*
X120600119Y-17782857D01*
X120276309Y-17973333D01*
X120114404Y-18354285D01*
X120114404Y-20449523D01*
X120114404Y-18354285D02*
X119952499Y-17973333D01*
X119628690Y-17782857D01*
X119142976Y-17782857D01*
X118819166Y-17973333D01*
X118657261Y-18354285D01*
X118657261Y-20449523D01*
X114447738Y-20449523D02*
X114447738Y-16449523D01*
X112828690Y-20449523D02*
X112828690Y-16449523D01*
X111209642Y-20449523D02*
X111209642Y-16449523D01*
X192485833Y-24222857D02*
X192485833Y-27460952D01*
X192647738Y-27841904D01*
X192809642Y-28032380D01*
X193133452Y-28222857D01*
X193619166Y-28222857D01*
X193942976Y-28032380D01*
X192485833Y-26699047D02*
X192809642Y-26889523D01*
X193457261Y-26889523D01*
X193781071Y-26699047D01*
X193942976Y-26508571D01*
X194104880Y-26127619D01*
X194104880Y-24984761D01*
X193942976Y-24603809D01*
X193781071Y-24413333D01*
X193457261Y-24222857D01*
X192809642Y-24222857D01*
X192485833Y-24413333D01*
X190866785Y-26889523D02*
X190866785Y-24222857D01*
X190866785Y-22889523D02*
X191028690Y-23080000D01*
X190866785Y-23270476D01*
X190704880Y-23080000D01*
X190866785Y-22889523D01*
X190866785Y-23270476D01*
X189733452Y-24222857D02*
X188438214Y-24222857D01*
X189247738Y-22889523D02*
X189247738Y-26318095D01*
X189085833Y-26699047D01*
X188762023Y-26889523D01*
X188438214Y-26889523D01*
X186819166Y-26889523D02*
X187142976Y-26699047D01*
X187304880Y-26318095D01*
X187304880Y-22889523D01*
X184066785Y-26889523D02*
X184066785Y-24794285D01*
X184228690Y-24413333D01*
X184552500Y-24222857D01*
X185200119Y-24222857D01*
X185523928Y-24413333D01*
X184066785Y-26699047D02*
X184390595Y-26889523D01*
X185200119Y-26889523D01*
X185523928Y-26699047D01*
X185685833Y-26318095D01*
X185685833Y-25937142D01*
X185523928Y-25556190D01*
X185200119Y-25365714D01*
X184390595Y-25365714D01*
X184066785Y-25175238D01*
X182447738Y-26889523D02*
X182447738Y-22889523D01*
X182447738Y-24413333D02*
X182123928Y-24222857D01*
X181476309Y-24222857D01*
X181152500Y-24413333D01*
X180990595Y-24603809D01*
X180828690Y-24984761D01*
X180828690Y-26127619D01*
X180990595Y-26508571D01*
X181152500Y-26699047D01*
X181476309Y-26889523D01*
X182123928Y-26889523D01*
X182447738Y-26699047D01*
X179371547Y-26508571D02*
X179209642Y-26699047D01*
X179371547Y-26889523D01*
X179533452Y-26699047D01*
X179371547Y-26508571D01*
X179371547Y-26889523D01*
X176295357Y-26699047D02*
X176619166Y-26889523D01*
X177266785Y-26889523D01*
X177590595Y-26699047D01*
X177752500Y-26508571D01*
X177914404Y-26127619D01*
X177914404Y-24984761D01*
X177752500Y-24603809D01*
X177590595Y-24413333D01*
X177266785Y-24222857D01*
X176619166Y-24222857D01*
X176295357Y-24413333D01*
X174352500Y-26889523D02*
X174676309Y-26699047D01*
X174838214Y-26508571D01*
X175000119Y-26127619D01*
X175000119Y-24984761D01*
X174838214Y-24603809D01*
X174676309Y-24413333D01*
X174352500Y-24222857D01*
X173866785Y-24222857D01*
X173542976Y-24413333D01*
X173381071Y-24603809D01*
X173219166Y-24984761D01*
X173219166Y-26127619D01*
X173381071Y-26508571D01*
X173542976Y-26699047D01*
X173866785Y-26889523D01*
X174352500Y-26889523D01*
X171762023Y-26889523D02*
X171762023Y-24222857D01*
X171762023Y-24603809D02*
X171600119Y-24413333D01*
X171276309Y-24222857D01*
X170790595Y-24222857D01*
X170466785Y-24413333D01*
X170304880Y-24794285D01*
X170304880Y-26889523D01*
X170304880Y-24794285D02*
X170142976Y-24413333D01*
X169819166Y-24222857D01*
X169333452Y-24222857D01*
X169009642Y-24413333D01*
X168847738Y-24794285D01*
X168847738Y-26889523D01*
X164800119Y-22699047D02*
X167714404Y-27841904D01*
X163666785Y-26889523D02*
X163666785Y-22889523D01*
X163666785Y-24413333D02*
X163342976Y-24222857D01*
X162695357Y-24222857D01*
X162371547Y-24413333D01*
X162209642Y-24603809D01*
X162047738Y-24984761D01*
X162047738Y-26127619D01*
X162209642Y-26508571D01*
X162371547Y-26699047D01*
X162695357Y-26889523D01*
X163342976Y-26889523D01*
X163666785Y-26699047D01*
X159133452Y-24222857D02*
X159133452Y-26889523D01*
X160590595Y-24222857D02*
X160590595Y-26318095D01*
X160428690Y-26699047D01*
X160104880Y-26889523D01*
X159619166Y-26889523D01*
X159295357Y-26699047D01*
X159133452Y-26508571D01*
X157514404Y-26889523D02*
X157514404Y-24222857D01*
X157514404Y-24984761D02*
X157352500Y-24603809D01*
X157190595Y-24413333D01*
X156866785Y-24222857D01*
X156542976Y-24222857D01*
X153952500Y-26889523D02*
X153952500Y-22889523D01*
X153952500Y-26699047D02*
X154276309Y-26889523D01*
X154923928Y-26889523D01*
X155247738Y-26699047D01*
X155409642Y-26508571D01*
X155571547Y-26127619D01*
X155571547Y-24984761D01*
X155409642Y-24603809D01*
X155247738Y-24413333D01*
X154923928Y-24222857D01*
X154276309Y-24222857D01*
X153952500Y-24413333D01*
X152333452Y-26889523D02*
X152333452Y-24222857D01*
X152333452Y-22889523D02*
X152495357Y-23080000D01*
X152333452Y-23270476D01*
X152171547Y-23080000D01*
X152333452Y-22889523D01*
X152333452Y-23270476D01*
X149257261Y-26699047D02*
X149581071Y-26889523D01*
X150228690Y-26889523D01*
X150552500Y-26699047D01*
X150714404Y-26508571D01*
X150876309Y-26127619D01*
X150876309Y-24984761D01*
X150714404Y-24603809D01*
X150552500Y-24413333D01*
X150228690Y-24222857D01*
X149581071Y-24222857D01*
X149257261Y-24413333D01*
X147800119Y-26889523D02*
X147800119Y-22889523D01*
X147476309Y-25365714D02*
X146504880Y-26889523D01*
X146504880Y-24222857D02*
X147800119Y-25746666D01*
X145047738Y-24222857D02*
X145047738Y-27651428D01*
X145209642Y-28032380D01*
X145533452Y-28222857D01*
X145695357Y-28222857D01*
X145047738Y-22889523D02*
X145209642Y-23080000D01*
X145047738Y-23270476D01*
X144885833Y-23080000D01*
X145047738Y-22889523D01*
X145047738Y-23270476D01*
X143428690Y-24222857D02*
X143428690Y-28222857D01*
X143428690Y-24413333D02*
X143104880Y-24222857D01*
X142457261Y-24222857D01*
X142133452Y-24413333D01*
X141971547Y-24603809D01*
X141809642Y-24984761D01*
X141809642Y-26127619D01*
X141971547Y-26508571D01*
X142133452Y-26699047D01*
X142457261Y-26889523D01*
X143104880Y-26889523D01*
X143428690Y-26699047D01*
X137923928Y-22699047D02*
X140838214Y-27841904D01*
X135495357Y-26699047D02*
X135819166Y-26889523D01*
X136466785Y-26889523D01*
X136790595Y-26699047D01*
X136952500Y-26318095D01*
X136952500Y-24794285D01*
X136790595Y-24413333D01*
X136466785Y-24222857D01*
X135819166Y-24222857D01*
X135495357Y-24413333D01*
X135333452Y-24794285D01*
X135333452Y-25175238D01*
X136952500Y-25556190D01*
X133876309Y-26889523D02*
X133876309Y-24222857D01*
X133876309Y-24984761D02*
X133714404Y-24603809D01*
X133552500Y-24413333D01*
X133228690Y-24222857D01*
X132904880Y-24222857D01*
X131771547Y-26889523D02*
X131771547Y-24222857D01*
X131771547Y-22889523D02*
X131933452Y-23080000D01*
X131771547Y-23270476D01*
X131609642Y-23080000D01*
X131771547Y-22889523D01*
X131771547Y-23270476D01*
X128695357Y-26699047D02*
X129019166Y-26889523D01*
X129666785Y-26889523D01*
X129990595Y-26699047D01*
X130152500Y-26508571D01*
X130314404Y-26127619D01*
X130314404Y-24984761D01*
X130152500Y-24603809D01*
X129990595Y-24413333D01*
X129666785Y-24222857D01*
X129019166Y-24222857D01*
X128695357Y-24413333D01*
X125781071Y-26889523D02*
X125781071Y-24794285D01*
X125942976Y-24413333D01*
X126266785Y-24222857D01*
X126914404Y-24222857D01*
X127238214Y-24413333D01*
X125781071Y-26699047D02*
X126104880Y-26889523D01*
X126914404Y-26889523D01*
X127238214Y-26699047D01*
X127400119Y-26318095D01*
X127400119Y-25937142D01*
X127238214Y-25556190D01*
X126914404Y-25365714D01*
X126104880Y-25365714D01*
X125781071Y-25175238D01*
X124162023Y-26889523D02*
X124162023Y-22889523D01*
X122866785Y-22889523D01*
X122542976Y-23080000D01*
X122381071Y-23270476D01*
X122219166Y-23651428D01*
X122219166Y-24222857D01*
X122381071Y-24603809D01*
X122542976Y-24794285D01*
X122866785Y-24984761D01*
X124162023Y-24984761D01*
X120762023Y-26889523D02*
X120762023Y-24222857D01*
X120762023Y-22889523D02*
X120923928Y-23080000D01*
X120762023Y-23270476D01*
X120600119Y-23080000D01*
X120762023Y-22889523D01*
X120762023Y-23270476D01*
X117685833Y-26699047D02*
X118009642Y-26889523D01*
X118657261Y-26889523D01*
X118981071Y-26699047D01*
X119142976Y-26508571D01*
X119304880Y-26127619D01*
X119304880Y-24984761D01*
X119142976Y-24603809D01*
X118981071Y-24413333D01*
X118657261Y-24222857D01*
X118009642Y-24222857D01*
X117685833Y-24413333D01*
X115742976Y-26889523D02*
X116066785Y-26699047D01*
X116228690Y-26508571D01*
X116390595Y-26127619D01*
X116390595Y-24984761D01*
X116228690Y-24603809D01*
X116066785Y-24413333D01*
X115742976Y-24222857D01*
X115257261Y-24222857D01*
X114933452Y-24413333D01*
X114771547Y-24603809D01*
X114609642Y-24984761D01*
X114609642Y-26127619D01*
X114771547Y-26508571D01*
X114933452Y-26699047D01*
X115257261Y-26889523D01*
X115742976Y-26889523D01*
X113476309Y-22889523D02*
X111371547Y-22889523D01*
X112504880Y-24413333D01*
X112019166Y-24413333D01*
X111695357Y-24603809D01*
X111533452Y-24794285D01*
X111371547Y-25175238D01*
X111371547Y-26127619D01*
X111533452Y-26508571D01*
X111695357Y-26699047D01*
X112019166Y-26889523D01*
X112990595Y-26889523D01*
X113314404Y-26699047D01*
X113476309Y-26508571D01*
X109914404Y-26889523D02*
X109914404Y-22889523D01*
X108619166Y-22889523D01*
X108295357Y-23080000D01*
X108133452Y-23270476D01*
X107971547Y-23651428D01*
X107971547Y-24222857D01*
X108133452Y-24603809D01*
X108295357Y-24794285D01*
X108619166Y-24984761D01*
X109914404Y-24984761D01*
X104571547Y-26508571D02*
X104733452Y-26699047D01*
X105219166Y-26889523D01*
X105542976Y-26889523D01*
X106028690Y-26699047D01*
X106352500Y-26318095D01*
X106514404Y-25937142D01*
X106676309Y-25175238D01*
X106676309Y-24603809D01*
X106514404Y-23841904D01*
X106352500Y-23460952D01*
X106028690Y-23080000D01*
X105542976Y-22889523D01*
X105219166Y-22889523D01*
X104733452Y-23080000D01*
X104571547Y-23270476D01*
X101981071Y-24794285D02*
X101495357Y-24984761D01*
X101333452Y-25175238D01*
X101171547Y-25556190D01*
X101171547Y-26127619D01*
X101333452Y-26508571D01*
X101495357Y-26699047D01*
X101819166Y-26889523D01*
X103114404Y-26889523D01*
X103114404Y-22889523D01*
X101981071Y-22889523D01*
X101657261Y-23080000D01*
X101495357Y-23270476D01*
X101333452Y-23651428D01*
X101333452Y-24032380D01*
X101495357Y-24413333D01*
X101657261Y-24603809D01*
X101981071Y-24794285D01*
X103114404Y-24794285D01*
X99876309Y-26699047D02*
X99552500Y-26889523D01*
X98904880Y-26889523D01*
X98581071Y-26699047D01*
X98419166Y-26318095D01*
X98419166Y-26127619D01*
X98581071Y-25746666D01*
X98904880Y-25556190D01*
X99390595Y-25556190D01*
X99714404Y-25365714D01*
X99876309Y-24984761D01*
X99876309Y-24794285D01*
X99714404Y-24413333D01*
X99390595Y-24222857D01*
X98904880Y-24222857D01*
X98581071Y-24413333D01*
X193942976Y-33329523D02*
X193942976Y-29329523D01*
X193942976Y-30853333D02*
X193619166Y-30662857D01*
X192971547Y-30662857D01*
X192647738Y-30853333D01*
X192485833Y-31043809D01*
X192323928Y-31424761D01*
X192323928Y-32567619D01*
X192485833Y-32948571D01*
X192647738Y-33139047D01*
X192971547Y-33329523D01*
X193619166Y-33329523D01*
X193942976Y-33139047D01*
X189409642Y-30662857D02*
X189409642Y-33329523D01*
X190866785Y-30662857D02*
X190866785Y-32758095D01*
X190704880Y-33139047D01*
X190381071Y-33329523D01*
X189895357Y-33329523D01*
X189571547Y-33139047D01*
X189409642Y-32948571D01*
X187790595Y-33329523D02*
X187790595Y-30662857D01*
X187790595Y-31424761D02*
X187628690Y-31043809D01*
X187466785Y-30853333D01*
X187142976Y-30662857D01*
X186819166Y-30662857D01*
X184228690Y-33329523D02*
X184228690Y-29329523D01*
X184228690Y-33139047D02*
X184552500Y-33329523D01*
X185200119Y-33329523D01*
X185523928Y-33139047D01*
X185685833Y-32948571D01*
X185847738Y-32567619D01*
X185847738Y-31424761D01*
X185685833Y-31043809D01*
X185523928Y-30853333D01*
X185200119Y-30662857D01*
X184552500Y-30662857D01*
X184228690Y-30853333D01*
X182609642Y-33329523D02*
X182609642Y-30662857D01*
X182609642Y-29329523D02*
X182771547Y-29520000D01*
X182609642Y-29710476D01*
X182447738Y-29520000D01*
X182609642Y-29329523D01*
X182609642Y-29710476D01*
X179533452Y-33139047D02*
X179857261Y-33329523D01*
X180504880Y-33329523D01*
X180828690Y-33139047D01*
X180990595Y-32948571D01*
X181152500Y-32567619D01*
X181152500Y-31424761D01*
X180990595Y-31043809D01*
X180828690Y-30853333D01*
X180504880Y-30662857D01*
X179857261Y-30662857D01*
X179533452Y-30853333D01*
X178076309Y-33329523D02*
X178076309Y-29329523D01*
X177752500Y-31805714D02*
X176781071Y-33329523D01*
X176781071Y-30662857D02*
X178076309Y-32186666D01*
X175323928Y-30662857D02*
X175323928Y-34091428D01*
X175485833Y-34472380D01*
X175809642Y-34662857D01*
X175971547Y-34662857D01*
X175323928Y-29329523D02*
X175485833Y-29520000D01*
X175323928Y-29710476D01*
X175162023Y-29520000D01*
X175323928Y-29329523D01*
X175323928Y-29710476D01*
X173704880Y-30662857D02*
X173704880Y-34662857D01*
X173704880Y-30853333D02*
X173381071Y-30662857D01*
X172733452Y-30662857D01*
X172409642Y-30853333D01*
X172247738Y-31043809D01*
X172085833Y-31424761D01*
X172085833Y-32567619D01*
X172247738Y-32948571D01*
X172409642Y-33139047D01*
X172733452Y-33329523D01*
X173381071Y-33329523D01*
X173704880Y-33139047D01*
X168523928Y-31424761D02*
X168685833Y-31234285D01*
X169009642Y-31043809D01*
X169333452Y-31043809D01*
X169657261Y-31234285D01*
X169819166Y-31424761D01*
X169981071Y-31805714D01*
X169981071Y-32186666D01*
X169819166Y-32567619D01*
X169657261Y-32758095D01*
X169333452Y-32948571D01*
X169009642Y-32948571D01*
X168685833Y-32758095D01*
X168523928Y-32567619D01*
X168523928Y-31043809D02*
X168523928Y-32567619D01*
X168362023Y-32758095D01*
X168200119Y-32758095D01*
X167876309Y-32567619D01*
X167714404Y-32186666D01*
X167714404Y-31234285D01*
X168038214Y-30662857D01*
X168523928Y-30281904D01*
X169171547Y-30091428D01*
X169819166Y-30281904D01*
X170304880Y-30662857D01*
X170628690Y-31234285D01*
X170790595Y-31996190D01*
X170628690Y-32758095D01*
X170304880Y-33329523D01*
X169819166Y-33710476D01*
X169171547Y-33900952D01*
X168523928Y-33710476D01*
X168038214Y-33329523D01*
X166257261Y-30662857D02*
X166257261Y-34662857D01*
X166257261Y-30853333D02*
X165933452Y-30662857D01*
X165285833Y-30662857D01*
X164962023Y-30853333D01*
X164800119Y-31043809D01*
X164638214Y-31424761D01*
X164638214Y-32567619D01*
X164800119Y-32948571D01*
X164962023Y-33139047D01*
X165285833Y-33329523D01*
X165933452Y-33329523D01*
X166257261Y-33139047D01*
X163181071Y-33329523D02*
X163181071Y-30662857D01*
X163181071Y-31424761D02*
X163019166Y-31043809D01*
X162857261Y-30853333D01*
X162533452Y-30662857D01*
X162209642Y-30662857D01*
X160590595Y-33329523D02*
X160914404Y-33139047D01*
X161076309Y-32948571D01*
X161238214Y-32567619D01*
X161238214Y-31424761D01*
X161076309Y-31043809D01*
X160914404Y-30853333D01*
X160590595Y-30662857D01*
X160104880Y-30662857D01*
X159781071Y-30853333D01*
X159619166Y-31043809D01*
X159457261Y-31424761D01*
X159457261Y-32567619D01*
X159619166Y-32948571D01*
X159781071Y-33139047D01*
X160104880Y-33329523D01*
X160590595Y-33329523D01*
X158485833Y-30662857D02*
X157190595Y-30662857D01*
X158000119Y-29329523D02*
X158000119Y-32758095D01*
X157838214Y-33139047D01*
X157514404Y-33329523D01*
X157190595Y-33329523D01*
X155571547Y-33329523D02*
X155895357Y-33139047D01*
X156057261Y-32948571D01*
X156219166Y-32567619D01*
X156219166Y-31424761D01*
X156057261Y-31043809D01*
X155895357Y-30853333D01*
X155571547Y-30662857D01*
X155085833Y-30662857D01*
X154762023Y-30853333D01*
X154600119Y-31043809D01*
X154438214Y-31424761D01*
X154438214Y-32567619D01*
X154600119Y-32948571D01*
X154762023Y-33139047D01*
X155085833Y-33329523D01*
X155571547Y-33329523D01*
X152981071Y-30662857D02*
X152981071Y-33329523D01*
X152981071Y-31043809D02*
X152819166Y-30853333D01*
X152495357Y-30662857D01*
X152009642Y-30662857D01*
X151685833Y-30853333D01*
X151523928Y-31234285D01*
X151523928Y-33329523D01*
X149904880Y-33329523D02*
X149904880Y-30662857D01*
X149904880Y-31043809D02*
X149742976Y-30853333D01*
X149419166Y-30662857D01*
X148933452Y-30662857D01*
X148609642Y-30853333D01*
X148447738Y-31234285D01*
X148447738Y-33329523D01*
X148447738Y-31234285D02*
X148285833Y-30853333D01*
X147962023Y-30662857D01*
X147476309Y-30662857D01*
X147152500Y-30853333D01*
X146990595Y-31234285D01*
X146990595Y-33329523D01*
X143914404Y-33329523D02*
X143914404Y-31234285D01*
X144076309Y-30853333D01*
X144400119Y-30662857D01*
X145047738Y-30662857D01*
X145371547Y-30853333D01*
X143914404Y-33139047D02*
X144238214Y-33329523D01*
X145047738Y-33329523D01*
X145371547Y-33139047D01*
X145533452Y-32758095D01*
X145533452Y-32377142D01*
X145371547Y-31996190D01*
X145047738Y-31805714D01*
X144238214Y-31805714D01*
X143914404Y-31615238D01*
X142295357Y-33329523D02*
X142295357Y-30662857D01*
X142295357Y-29329523D02*
X142457261Y-29520000D01*
X142295357Y-29710476D01*
X142133452Y-29520000D01*
X142295357Y-29329523D01*
X142295357Y-29710476D01*
X140190595Y-33329523D02*
X140514404Y-33139047D01*
X140676309Y-32758095D01*
X140676309Y-29329523D01*
X138895357Y-32948571D02*
X138733452Y-33139047D01*
X138895357Y-33329523D01*
X139057261Y-33139047D01*
X138895357Y-32948571D01*
X138895357Y-33329523D01*
X135819166Y-33139047D02*
X136142976Y-33329523D01*
X136790595Y-33329523D01*
X137114404Y-33139047D01*
X137276309Y-32948571D01*
X137438214Y-32567619D01*
X137438214Y-31424761D01*
X137276309Y-31043809D01*
X137114404Y-30853333D01*
X136790595Y-30662857D01*
X136142976Y-30662857D01*
X135819166Y-30853333D01*
X133876309Y-33329523D02*
X134200119Y-33139047D01*
X134362023Y-32948571D01*
X134523928Y-32567619D01*
X134523928Y-31424761D01*
X134362023Y-31043809D01*
X134200119Y-30853333D01*
X133876309Y-30662857D01*
X133390595Y-30662857D01*
X133066785Y-30853333D01*
X132904880Y-31043809D01*
X132742976Y-31424761D01*
X132742976Y-32567619D01*
X132904880Y-32948571D01*
X133066785Y-33139047D01*
X133390595Y-33329523D01*
X133876309Y-33329523D01*
X131285833Y-33329523D02*
X131285833Y-30662857D01*
X131285833Y-31043809D02*
X131123928Y-30853333D01*
X130800119Y-30662857D01*
X130314404Y-30662857D01*
X129990595Y-30853333D01*
X129828690Y-31234285D01*
X129828690Y-33329523D01*
X129828690Y-31234285D02*
X129666785Y-30853333D01*
X129342976Y-30662857D01*
X128857261Y-30662857D01*
X128533452Y-30853333D01*
X128371547Y-31234285D01*
X128371547Y-33329523D01*
X193942976Y-39769523D02*
X193942976Y-35769523D01*
X193942976Y-37293333D02*
X193619166Y-37102857D01*
X192971547Y-37102857D01*
X192647738Y-37293333D01*
X192485833Y-37483809D01*
X192323928Y-37864761D01*
X192323928Y-39007619D01*
X192485833Y-39388571D01*
X192647738Y-39579047D01*
X192971547Y-39769523D01*
X193619166Y-39769523D01*
X193942976Y-39579047D01*
X189409642Y-37102857D02*
X189409642Y-39769523D01*
X190866785Y-37102857D02*
X190866785Y-39198095D01*
X190704880Y-39579047D01*
X190381071Y-39769523D01*
X189895357Y-39769523D01*
X189571547Y-39579047D01*
X189409642Y-39388571D01*
X187790595Y-39769523D02*
X187790595Y-37102857D01*
X187790595Y-37864761D02*
X187628690Y-37483809D01*
X187466785Y-37293333D01*
X187142976Y-37102857D01*
X186819166Y-37102857D01*
X184228690Y-39769523D02*
X184228690Y-35769523D01*
X184228690Y-39579047D02*
X184552500Y-39769523D01*
X185200119Y-39769523D01*
X185523928Y-39579047D01*
X185685833Y-39388571D01*
X185847738Y-39007619D01*
X185847738Y-37864761D01*
X185685833Y-37483809D01*
X185523928Y-37293333D01*
X185200119Y-37102857D01*
X184552500Y-37102857D01*
X184228690Y-37293333D01*
X182609642Y-39769523D02*
X182609642Y-37102857D01*
X182609642Y-35769523D02*
X182771547Y-35960000D01*
X182609642Y-36150476D01*
X182447738Y-35960000D01*
X182609642Y-35769523D01*
X182609642Y-36150476D01*
X179533452Y-39579047D02*
X179857261Y-39769523D01*
X180504880Y-39769523D01*
X180828690Y-39579047D01*
X180990595Y-39388571D01*
X181152500Y-39007619D01*
X181152500Y-37864761D01*
X180990595Y-37483809D01*
X180828690Y-37293333D01*
X180504880Y-37102857D01*
X179857261Y-37102857D01*
X179533452Y-37293333D01*
X178076309Y-39769523D02*
X178076309Y-35769523D01*
X177752500Y-38245714D02*
X176781071Y-39769523D01*
X176781071Y-37102857D02*
X178076309Y-38626666D01*
X175323928Y-37102857D02*
X175323928Y-40531428D01*
X175485833Y-40912380D01*
X175809642Y-41102857D01*
X175971547Y-41102857D01*
X175323928Y-35769523D02*
X175485833Y-35960000D01*
X175323928Y-36150476D01*
X175162023Y-35960000D01*
X175323928Y-35769523D01*
X175323928Y-36150476D01*
X173704880Y-37102857D02*
X173704880Y-41102857D01*
X173704880Y-37293333D02*
X173381071Y-37102857D01*
X172733452Y-37102857D01*
X172409642Y-37293333D01*
X172247738Y-37483809D01*
X172085833Y-37864761D01*
X172085833Y-39007619D01*
X172247738Y-39388571D01*
X172409642Y-39579047D01*
X172733452Y-39769523D01*
X173381071Y-39769523D01*
X173704880Y-39579047D01*
X170628690Y-39388571D02*
X170466785Y-39579047D01*
X170628690Y-39769523D01*
X170790595Y-39579047D01*
X170628690Y-39388571D01*
X170628690Y-39769523D01*
X167552500Y-37102857D02*
X167552500Y-40340952D01*
X167714404Y-40721904D01*
X167876309Y-40912380D01*
X168200119Y-41102857D01*
X168685833Y-41102857D01*
X169009642Y-40912380D01*
X167552500Y-39579047D02*
X167876309Y-39769523D01*
X168523928Y-39769523D01*
X168847738Y-39579047D01*
X169009642Y-39388571D01*
X169171547Y-39007619D01*
X169171547Y-37864761D01*
X169009642Y-37483809D01*
X168847738Y-37293333D01*
X168523928Y-37102857D01*
X167876309Y-37102857D01*
X167552500Y-37293333D01*
X165933452Y-39769523D02*
X165933452Y-37102857D01*
X165933452Y-35769523D02*
X166095357Y-35960000D01*
X165933452Y-36150476D01*
X165771547Y-35960000D01*
X165933452Y-35769523D01*
X165933452Y-36150476D01*
X164800119Y-37102857D02*
X163504880Y-37102857D01*
X164314404Y-35769523D02*
X164314404Y-39198095D01*
X164152500Y-39579047D01*
X163828690Y-39769523D01*
X163504880Y-39769523D01*
X161885833Y-39769523D02*
X162209642Y-39579047D01*
X162371547Y-39198095D01*
X162371547Y-35769523D01*
X159133452Y-39769523D02*
X159133452Y-37674285D01*
X159295357Y-37293333D01*
X159619166Y-37102857D01*
X160266785Y-37102857D01*
X160590595Y-37293333D01*
X159133452Y-39579047D02*
X159457261Y-39769523D01*
X160266785Y-39769523D01*
X160590595Y-39579047D01*
X160752500Y-39198095D01*
X160752500Y-38817142D01*
X160590595Y-38436190D01*
X160266785Y-38245714D01*
X159457261Y-38245714D01*
X159133452Y-38055238D01*
X157514404Y-39769523D02*
X157514404Y-35769523D01*
X157514404Y-37293333D02*
X157190595Y-37102857D01*
X156542976Y-37102857D01*
X156219166Y-37293333D01*
X156057261Y-37483809D01*
X155895357Y-37864761D01*
X155895357Y-39007619D01*
X156057261Y-39388571D01*
X156219166Y-39579047D01*
X156542976Y-39769523D01*
X157190595Y-39769523D01*
X157514404Y-39579047D01*
X154438214Y-39388571D02*
X154276309Y-39579047D01*
X154438214Y-39769523D01*
X154600119Y-39579047D01*
X154438214Y-39388571D01*
X154438214Y-39769523D01*
X152819166Y-39769523D02*
X152819166Y-37102857D01*
X152819166Y-35769523D02*
X152981071Y-35960000D01*
X152819166Y-36150476D01*
X152657261Y-35960000D01*
X152819166Y-35769523D01*
X152819166Y-36150476D01*
X150714404Y-39769523D02*
X151038214Y-39579047D01*
X151200119Y-39388571D01*
X151362023Y-39007619D01*
X151362023Y-37864761D01*
X151200119Y-37483809D01*
X151038214Y-37293333D01*
X150714404Y-37102857D01*
X150228690Y-37102857D01*
X149904880Y-37293333D01*
X149742976Y-37483809D01*
X149581071Y-37864761D01*
X149581071Y-39007619D01*
X149742976Y-39388571D01*
X149904880Y-39579047D01*
X150228690Y-39769523D01*
X150714404Y-39769523D01*
M02*
